"_id","product_code","sku_code","voucher_code","expiry_date","reference_no","process_number","process_id","status"
"61230cbcb114fe47240d3b4d","EVC-TPD-0010-DYX-001","EVC-TPD-0010-DYX-001-001","11111148","2021-12-30 00:00:00","MCI-438190102734132497-DEV","MCI-437465765560358672","MCI-437465765560358672-019","RESERVED"
"61230cbcb114fe47240d3b4c","EVC-TPD-0010-DYX-001","EVC-TPD-0010-DYX-001-001","11111147","2021-12-30 00:00:00","MCI-438190102734132497-DEV","MCI-437465765560358672","MCI-437465765560358672-018","RESERVED"
"61230cbcb114fe47240d3b4b","EVC-TPD-0010-DYX-001","EVC-TPD-0010-DYX-001-001","11111146","2021-12-30 00:00:00","MCI-438190102734132497-DEV","MCI-437465765560358672","MCI-437465765560358672-017","RESERVED"
"61230cbcb114fe47240d3b4a","EVC-TPD-0010-DYX-001","EVC-TPD-0010-DYX-001-001","11111145","2021-12-30 00:00:00","MCI-438190102734132497-DEV","MCI-437465765560358672","MCI-437465765560358672-016","RESERVED"
"61230cbcb114fe47240d3b49","EVC-TPD-0010-DYX-001","EVC-TPD-0010-DYX-001-001","11111144","2021-12-30 00:00:00","MCI-438190102734132497-DEV","MCI-437465765560358672","MCI-437465765560358672-015","RESERVED"
