[
    {
        "method": "GET",
        "version_path": "/v1",
        "route_url": "/shoppingcart/all",
        "class_method": "ShoppingcartController->allComplete",
        "title": "Get all shopping cart"
    },
    {
        "method": "GET",
        "version_path": "/v1",
        "route_url": "/shoppingcart",
        "class_method": "ShoppingcartController->findShoppingcartByUser",
        "title": "Get shopping cart by user ID"
    },
    {
        "method": "POST",
        "version_path": "/v1",
        "route_url": "/shoppingcart/update/@shoppingcart_id",
        "class_method": "ShoppingcartController->update",
        "title": "Update shopping cart by ID "
    },
    {
        "method": "POST",
        "version_path": "/v1",
        "route_url": "/shoppingcart/add_product",
        "class_method": "ShoppingcartController->addProduct",
        "title": "Add product to shopping cart"
    },
    {
        "method": "POST",
        "version_path": "/v1",
        "route_url": "/shoppingcart/create",
        "class_method": "ShoppingcartController->createNewShoppingCart",
        "title": "Add product to shopping cart"
    },
    {
        "method": "POST",
        "version_path": "/v1",
        "route_url": "/shoppingcart/delete_product",
        "class_method": "ShoppingcartController->deleteProduct",
        "title": "Remove product from shopping cart"
    },
    {
        "method": "PUT",
        "version_path": "/v1",
        "route_url": "/shoppingcart/update_all_products",
        "class_method": "ShoppingcartController->updateAllProducts",
        "title": "Update shopping cart"
    },
    {
        "method": "POST",
        "version_path": "/v1",
        "route_url": "/shoppingcart/update_all_products",
        "class_method": "ShoppingcartController->updateAllProducts",
        "title": "Update shopping cart"
    }
]